## Module report - date Sunday, January 04, 2015 'AMt' 09:44:26 AM
## Created by Pcbnew version kicad (2014-12-16 BZR 5324)-product
## Unit = inches, Angle = deg.
##

$BeginDESCRIPTION

$BOARD
unit INCH
upper_left_corner  3.500949  3.386717
lower_right_corner  6.831562  4.997244
$EndBOARD

$MODULE "U4"
reference "U4"
value "ICL3221EIVZ"
footprint "Housings_SSOP:TSSOP-16_4.4x5mm_Pitch0.65mm"
attribut smd
position  5.030000  3.620000
orientation  0.00
layer component
$SHAPE3D
Na "Housings_SSOP/TSSOP-16_4.4x5mm_Pitch0.65mm.wrl"
Sc 1 1 1
Of 0 0 0
Ro 0 0 0
$EndSHAPE3D
$PAD "1"
position -0.116142 -0.089567
size  0.059055  0.017717
drill  0.000000
shape_offset  0.000000  0.000000
orientation  0.00
Shape  Circ
Layer  front
$EndPAD
$PAD "2"
position -0.116142 -0.063976
size  0.059055  0.017717
drill  0.000000
shape_offset  0.000000  0.000000
orientation  0.00
Shape  Circ
Layer  front
$EndPAD
$PAD "3"
position -0.116142 -0.038386
size  0.059055  0.017717
drill  0.000000
shape_offset  0.000000  0.000000
orientation  0.00
Shape  Circ
Layer  front
$EndPAD
$PAD "4"
position -0.116142 -0.012795
size  0.059055  0.017717
drill  0.000000
shape_offset  0.000000  0.000000
orientation  0.00
Shape  Circ
Layer  front
$EndPAD
$PAD "5"
position -0.116142  0.012795
size  0.059055  0.017717
drill  0.000000
shape_offset  0.000000  0.000000
orientation  0.00
Shape  Circ
Layer  front
$EndPAD
$PAD "6"
position -0.116142  0.038386
size  0.059055  0.017717
drill  0.000000
shape_offset  0.000000  0.000000
orientation  0.00
Shape  Circ
Layer  front
$EndPAD
$PAD "7"
position -0.116142  0.063976
size  0.059055  0.017717
drill  0.000000
shape_offset  0.000000  0.000000
orientation  0.00
Shape  Circ
Layer  front
$EndPAD
$PAD "8"
position -0.116142  0.089567
size  0.059055  0.017717
drill  0.000000
shape_offset  0.000000  0.000000
orientation  0.00
Shape  Circ
Layer  front
$EndPAD
$PAD "9"
position  0.116142  0.089567
size  0.059055  0.017717
drill  0.000000
shape_offset  0.000000  0.000000
orientation  0.00
Shape  Circ
Layer  front
$EndPAD
$PAD "10"
position  0.116142  0.063976
size  0.059055  0.017717
drill  0.000000
shape_offset  0.000000  0.000000
orientation  0.00
Shape  Circ
Layer  front
$EndPAD
$PAD "11"
position  0.116142  0.038386
size  0.059055  0.017717
drill  0.000000
shape_offset  0.000000  0.000000
orientation  0.00
Shape  Circ
Layer  front
$EndPAD
$PAD "12"
position  0.116142  0.012795
size  0.059055  0.017717
drill  0.000000
shape_offset  0.000000  0.000000
orientation  0.00
Shape  Circ
Layer  front
$EndPAD
$PAD "13"
position  0.116142 -0.012795
size  0.059055  0.017717
drill  0.000000
shape_offset  0.000000  0.000000
orientation  0.00
Shape  Circ
Layer  front
$EndPAD
$PAD "14"
position  0.116142 -0.038386
size  0.059055  0.017717
drill  0.000000
shape_offset  0.000000  0.000000
orientation  0.00
Shape  Circ
Layer  front
$EndPAD
$PAD "15"
position  0.116142 -0.063976
size  0.059055  0.017717
drill  0.000000
shape_offset  0.000000  0.000000
orientation  0.00
Shape  Circ
Layer  front
$EndPAD
$PAD "16"
position  0.116142 -0.089567
size  0.059055  0.017717
drill  0.000000
shape_offset  0.000000  0.000000
orientation  0.00
Shape  Circ
Layer  front
$EndPAD
$EndMODULE  U4

$MODULE "U3"
reference "U3"
value "LightBlueBean"
footprint "BlueBoltPCB:LightBlueBean-NoBat-NoBreadboard-OnHeader"
attribut none
position  5.600000  3.850000
orientation  0.00
layer component
$SHAPE3D
Na "${KIPRJMOD}/BlueBoltPCB.3dmodels/LightBlueBean-NoBat-NoBreadboard-OnHeader.wrl"
Sc 10 10 10
Of 0 0 0
Ro 0 0 0
$EndSHAPE3D
$PAD "A0"
position  0.322500  0.350000
size  0.074000  0.074000
drill  0.040000
shape_offset  0.000000  0.000000
orientation  0.00
Shape  ???
Layer  both
$EndPAD
$PAD "A1"
position  0.322500  0.250000
size  0.074000  0.074000
drill  0.040000
shape_offset  0.000000  0.000000
orientation  0.00
Shape  ???
Layer  both
$EndPAD
$PAD "0"
position  0.322500  0.150000
size  0.074000  0.074000
drill  0.040000
shape_offset  0.000000  0.000000
orientation  0.00
Shape  ???
Layer  both
$EndPAD
$PAD "1"
position  0.322500  0.050000
size  0.074000  0.074000
drill  0.040000
shape_offset  0.000000  0.000000
orientation  0.00
Shape  ???
Layer  both
$EndPAD
$PAD "2"
position  0.322500 -0.050000
size  0.074000  0.074000
drill  0.040000
shape_offset  0.000000  0.000000
orientation  0.00
Shape  ???
Layer  both
$EndPAD
$PAD "3"
position  0.322500 -0.150000
size  0.074000  0.074000
drill  0.040000
shape_offset  0.000000  0.000000
orientation  0.00
Shape  ???
Layer  both
$EndPAD
$PAD "4"
position  0.322500 -0.250000
size  0.074000  0.074000
drill  0.040000
shape_offset  0.000000  0.000000
orientation  0.00
Shape  ???
Layer  both
$EndPAD
$PAD "5"
position  0.322500 -0.350000
size  0.074000  0.074000
drill  0.040000
shape_offset  0.000000  0.000000
orientation  0.00
Shape  ???
Layer  both
$EndPAD
$PAD "BAT"
position  0.082500  0.350000
size  0.074000  0.074000
drill  0.040000
shape_offset  0.000000  0.000000
orientation  0.00
Shape  ???
Layer  both
$EndPAD
$PAD "GND0"
position  0.182500  0.350000
size  0.074000  0.074000
drill  0.040000
shape_offset  0.000000  0.000000
orientation  0.00
Shape  ???
Layer  both
$EndPAD
$PAD "RST"
position  0.182500  0.250000
size  0.074000  0.074000
drill  0.040000
shape_offset  0.000000  0.000000
orientation  0.00
Shape  ???
Layer  both
$EndPAD
$PAD "VCC"
position  0.182500  0.150000
size  0.074000  0.074000
drill  0.040000
shape_offset  0.000000  0.000000
orientation  0.00
Shape  ???
Layer  both
$EndPAD
$PAD "GND1"
position  0.182500 -0.350000
size  0.074000  0.074000
drill  0.040000
shape_offset  0.000000  0.000000
orientation  0.00
Shape  ???
Layer  both
$EndPAD
$EndMODULE  U3

$MODULE "D3"
reference "D3"
value "LED-RA-GREEN"
footprint "BlueBoltPCB:Kingbright-WP1503CB-GD"
attribut none
position  6.450000  4.275000
orientation  90.00
layer component
$SHAPE3D
Na "/Volumes/Slab/mblair/BlueBolt/BlueBoltPCB/BlueBoltPCB.3dmodels/Kingbright-WP1503CB-GD.wrl"
Sc 10 10 10
Of 0 0 0
Ro 0 0 0
$EndSHAPE3D
$PAD "1"
position -0.050000 -0.226000
size  0.070000  0.070000
drill  0.035000
shape_offset  0.000000  0.000000
orientation  0.00
Shape  Circ
Layer  both
$EndPAD
$PAD "2"
position  0.050000 -0.226000
size  0.070000  0.070000
drill  0.035000
shape_offset  0.000000  0.000000
orientation  0.00
Shape  ???
Layer  both
$EndPAD
$EndMODULE  D3

$MODULE "D1"
reference "D1"
value "LED-RA-RED"
footprint "BlueBoltPCB:Kingbright-WP1503CB-ID"
attribut none
position  6.450000  3.775000
orientation  90.00
layer component
$SHAPE3D
Na "/Volumes/Slab/mblair/BlueBolt/BlueBoltPCB/BlueBoltPCB.3dmodels/Kingbright-WP1503CB-ID.wrl"
Sc 10 10 10
Of 0 0 0
Ro 0 0 0
$EndSHAPE3D
$PAD "1"
position -0.050000 -0.226000
size  0.070000  0.070000
drill  0.035000
shape_offset  0.000000  0.000000
orientation  0.00
Shape  Circ
Layer  both
$EndPAD
$PAD "2"
position  0.050000 -0.226000
size  0.070000  0.070000
drill  0.035000
shape_offset  0.000000  0.000000
orientation  0.00
Shape  ???
Layer  both
$EndPAD
$EndMODULE  D1

$MODULE "D2"
reference "D2"
value "LED-RA-YELLOW"
footprint "BlueBoltPCB:Kingbright-WP1503CB-YD"
attribut none
position  6.450000  4.025000
orientation  90.00
layer component
$SHAPE3D
Na "/Volumes/Slab/mblair/BlueBolt/BlueBoltPCB/BlueBoltPCB.3dmodels/Kingbright-WP1503CB-YD.wrl"
Sc 10 10 10
Of 0 0 0
Ro 0 0 0
$EndSHAPE3D
$PAD "1"
position -0.050000 -0.226000
size  0.070000  0.070000
drill  0.035000
shape_offset  0.000000  0.000000
orientation  0.00
Shape  Circ
Layer  both
$EndPAD
$PAD "2"
position  0.050000 -0.226000
size  0.070000  0.070000
drill  0.035000
shape_offset  0.000000  0.000000
orientation  0.00
Shape  ???
Layer  both
$EndPAD
$EndMODULE  D2

$MODULE "J2"
reference "J2"
value "5747840-2"
footprint "BlueBoltPCB:TE-5747840-2"
attribut none
position  4.150000  4.025000
orientation  90.00
layer component
$SHAPE3D
Na "${KIPRJMOD}/BlueBoltPCB.3dmodels/TE-5747840-2.wrl"
Sc 10 10 10
Of 0 0 0
Ro 0 0 0
$EndSHAPE3D
$PAD "3"
position  0.000000  0.431000
size  0.080000  0.080000
drill  0.040000
shape_offset  0.000000  0.000000
orientation  0.00
Shape  ???
Layer  both
$EndPAD
$PAD "4"
position -0.108000  0.431000
size  0.080000  0.080000
drill  0.040000
shape_offset  0.000000  0.000000
orientation  0.00
Shape  ???
Layer  both
$EndPAD
$PAD "5"
position -0.216000  0.431000
size  0.080000  0.080000
drill  0.040000
shape_offset  0.000000  0.000000
orientation  0.00
Shape  ???
Layer  both
$EndPAD
$PAD "6"
position  0.162000  0.319000
size  0.080000  0.080000
drill  0.040000
shape_offset  0.000000  0.000000
orientation  0.00
Shape  ???
Layer  both
$EndPAD
$PAD "7"
position  0.054000  0.319000
size  0.080000  0.080000
drill  0.040000
shape_offset  0.000000  0.000000
orientation  0.00
Shape  ???
Layer  both
$EndPAD
$PAD "8"
position -0.054000  0.319000
size  0.080000  0.080000
drill  0.040000
shape_offset  0.000000  0.000000
orientation  0.00
Shape  ???
Layer  both
$EndPAD
$PAD "9"
position -0.162000  0.319000
size  0.080000  0.080000
drill  0.040000
shape_offset  0.000000  0.000000
orientation  0.00
Shape  ???
Layer  both
$EndPAD
$PAD "FG0"
position  0.492000  0.375000
size  0.175000  0.175000
drill  0.125000
shape_offset  0.000000  0.000000
orientation  0.00
Shape  ???
Layer  both
$EndPAD
$PAD "FG1"
position -0.492000  0.375000
size  0.175000  0.175000
drill  0.125000
shape_offset  0.000000  0.000000
orientation  0.00
Shape  ???
Layer  both
$EndPAD
$PAD "1"
position  0.216000  0.431000
size  0.080000  0.080000
drill  0.040000
shape_offset  0.000000  0.000000
orientation  0.00
Shape  Circ
Layer  both
$EndPAD
$PAD "2"
position  0.108000  0.431000
size  0.080000  0.080000
drill  0.040000
shape_offset  0.000000  0.000000
orientation  0.00
Shape  ???
Layer  both
$EndPAD
$EndMODULE  J2

$MODULE "J1"
reference "J1"
value "TE-440055-2"
footprint "BlueBoltPCB:TE-440055-2"
attribut none
position  4.850000  4.650000
orientation  0.00
layer component
$SHAPE3D
Na "/Volumes/Slab/mblair/BlueBolt/BlueBoltPCB/BlueBoltPCB.3dmodels/TE-440055-2.wrl"
Sc 10 10 10
Of 0 0 0
Ro 0 0 0
$EndSHAPE3D
$PAD "1"
position -0.039370 -0.246063
size  0.059055  0.059055
drill  0.031496
shape_offset  0.000000  0.000000
orientation  0.00
Shape  Circ
Layer  both
$EndPAD
$PAD "2"
position  0.039370 -0.246063
size  0.059055  0.059055
drill  0.031496
shape_offset  0.000000  0.000000
orientation  0.00
Shape  ???
Layer  both
$EndPAD
$EndMODULE  J1

$MODULE "X1"
reference "X1"
value "3.072MHz"
footprint "Crystals:Crystal_HC49-SD_SMD"
attribut smd
position  5.460000  4.420000
orientation  180.00
layer component
$SHAPE3D
Na "Crystals_Oscillators_SMD/Q_49U3HMS.wrl"
Sc 1 1 1
Of 0 0 0
Ro 0 0 0
$EndSHAPE3D
$PAD "1"
position -0.190900  0.000000
size  0.220500  0.082700
drill  0.000000
shape_offset  0.000000  0.000000
orientation  0.00
Shape  Circ
Layer  front
$EndPAD
$PAD "2"
position  0.190900  0.000000
size  0.220500  0.082700
drill  0.000000
shape_offset  0.000000  0.000000
orientation  0.00
Shape  Circ
Layer  front
$EndPAD
$EndMODULE  X1

$MODULE "U1"
reference "U1"
value "MCP1824ST-3302E/DB"
footprint "SMD_Packages:SOT-223"
attribut smd
position  4.950000  4.000000
orientation  0.00
layer component
$SHAPE3D
Na "SMD_Packages/SOT-223.wrl"
Sc 0.4 0.4 0.4
Of 0 0 0
Ro 0 0 0
$EndSHAPE3D
$PAD "4"
position  0.000000 -0.130000
size  0.144000  0.080000
drill  0.000000
shape_offset  0.000000  0.000000
orientation  0.00
Shape  Circ
Layer  front
$EndPAD
$PAD "2"
position  0.000000  0.130000
size  0.040000  0.080000
drill  0.000000
shape_offset  0.000000  0.000000
orientation  0.00
Shape  Circ
Layer  front
$EndPAD
$PAD "3"
position  0.090000  0.130000
size  0.040000  0.080000
drill  0.000000
shape_offset  0.000000  0.000000
orientation  0.00
Shape  Circ
Layer  front
$EndPAD
$PAD "1"
position -0.090000  0.130000
size  0.040000  0.080000
drill  0.000000
shape_offset  0.000000  0.000000
orientation  0.00
Shape  Circ
Layer  front
$EndPAD
$EndMODULE  U1

$MODULE "C2"
reference "C2"
value "4.7uF 6.3V 10% X5R"
footprint "Capacitors_SMD:C_0805_HandSoldering"
attribut smd
position  4.850000  4.250000
orientation  0.00
layer component
$SHAPE3D
Na "Capacitors_SMD/C_0805_HandSoldering.wrl"
Sc 1 1 1
Of 0 0 0
Ro 0 0 0
$EndSHAPE3D
$PAD "1"
position -0.049213  0.000000
size  0.059055  0.049213
drill  0.000000
shape_offset  0.000000  0.000000
orientation  0.00
Shape  Circ
Layer  front
$EndPAD
$PAD "2"
position  0.049213  0.000000
size  0.059055  0.049213
drill  0.000000
shape_offset  0.000000  0.000000
orientation  0.00
Shape  Circ
Layer  front
$EndPAD
$EndMODULE  C2

$MODULE "C5"
reference "C5"
value "4.7uF 6.3V 10% X5R"
footprint "Capacitors_SMD:C_0805_HandSoldering"
attribut smd
position  5.050000  4.250000
orientation  180.00
layer component
$SHAPE3D
Na "Capacitors_SMD/C_0805_HandSoldering.wrl"
Sc 1 1 1
Of 0 0 0
Ro 0 0 0
$EndSHAPE3D
$PAD "1"
position -0.049213  0.000000
size  0.059055  0.049213
drill  0.000000
shape_offset  0.000000  0.000000
orientation  0.00
Shape  Circ
Layer  front
$EndPAD
$PAD "2"
position  0.049213  0.000000
size  0.059055  0.049213
drill  0.000000
shape_offset  0.000000  0.000000
orientation  0.00
Shape  Circ
Layer  front
$EndPAD
$EndMODULE  C5

$MODULE "C6"
reference "C6"
value "0.1uF 25V 10% X5R"
footprint "Capacitors_SMD:C_0402"
attribut smd
position  4.820000  3.530000
orientation  180.00
layer component
$SHAPE3D
Na "Capacitors_SMD/C_0402.wrl"
Sc 1 1 1
Of 0 0 0
Ro 0 0 0
$EndSHAPE3D
$PAD "1"
position -0.021654  0.000000
size  0.023622  0.019685
drill  0.000000
shape_offset  0.000000  0.000000
orientation  0.00
Shape  Circ
Layer  front
$EndPAD
$PAD "2"
position  0.021654  0.000000
size  0.023622  0.019685
drill  0.000000
shape_offset  0.000000  0.000000
orientation  0.00
Shape  Circ
Layer  front
$EndPAD
$EndMODULE  C6

$MODULE "C7"
reference "C7"
value "0.1uF 25V 10% X5R"
footprint "Capacitors_SMD:C_0402"
attribut smd
position  4.820000  3.650000
orientation  180.00
layer component
$SHAPE3D
Na "Capacitors_SMD/C_0402.wrl"
Sc 1 1 1
Of 0 0 0
Ro 0 0 0
$EndSHAPE3D
$PAD "1"
position -0.021654  0.000000
size  0.023622  0.019685
drill  0.000000
shape_offset  0.000000  0.000000
orientation  0.00
Shape  Circ
Layer  front
$EndPAD
$PAD "2"
position  0.021654  0.000000
size  0.023622  0.019685
drill  0.000000
shape_offset  0.000000  0.000000
orientation  0.00
Shape  Circ
Layer  front
$EndPAD
$EndMODULE  C7

$MODULE "C8"
reference "C8"
value "0.1uF 25V 10% X5R"
footprint "Capacitors_SMD:C_0402"
attribut smd
position  5.220000  3.560000
orientation  90.00
layer component
$SHAPE3D
Na "Capacitors_SMD/C_0402.wrl"
Sc 1 1 1
Of 0 0 0
Ro 0 0 0
$EndSHAPE3D
$PAD "1"
position -0.021654  0.000000
size  0.023622  0.019685
drill  0.000000
shape_offset  0.000000  0.000000
orientation  0.00
Shape  Circ
Layer  front
$EndPAD
$PAD "2"
position  0.021654  0.000000
size  0.023622  0.019685
drill  0.000000
shape_offset  0.000000  0.000000
orientation  0.00
Shape  Circ
Layer  front
$EndPAD
$EndMODULE  C8

$MODULE "C9"
reference "C9"
value "0.1uF 25V 10% X5R"
footprint "Capacitors_SMD:C_0402"
attribut smd
position  4.820000  3.580000
orientation  0.00
layer component
$SHAPE3D
Na "Capacitors_SMD/C_0402.wrl"
Sc 1 1 1
Of 0 0 0
Ro 0 0 0
$EndSHAPE3D
$PAD "1"
position -0.021654  0.000000
size  0.023622  0.019685
drill  0.000000
shape_offset  0.000000  0.000000
orientation  0.00
Shape  Circ
Layer  front
$EndPAD
$PAD "2"
position  0.021654  0.000000
size  0.023622  0.019685
drill  0.000000
shape_offset  0.000000  0.000000
orientation  0.00
Shape  Circ
Layer  front
$EndPAD
$EndMODULE  C9

$MODULE "C10"
reference "C10"
value "0.1uF 25V 10% X5R"
footprint "Capacitors_SMD:C_0402"
attribut smd
position  4.820000  3.710000
orientation  0.00
layer component
$SHAPE3D
Na "Capacitors_SMD/C_0402.wrl"
Sc 1 1 1
Of 0 0 0
Ro 0 0 0
$EndSHAPE3D
$PAD "1"
position -0.021654  0.000000
size  0.023622  0.019685
drill  0.000000
shape_offset  0.000000  0.000000
orientation  0.00
Shape  Circ
Layer  front
$EndPAD
$PAD "2"
position  0.021654  0.000000
size  0.023622  0.019685
drill  0.000000
shape_offset  0.000000  0.000000
orientation  0.00
Shape  Circ
Layer  front
$EndPAD
$EndMODULE  C10

$MODULE "R4"
reference "R4"
value "330"
footprint "Resistors_SMD:R_0402"
attribut smd
position  6.100000  3.500000
orientation  180.00
layer component
$SHAPE3D
Na "Resistors_SMD/R_0402.wrl"
Sc 1 1 1
Of 0 0 0
Ro 0 0 0
$EndSHAPE3D
$PAD "1"
position -0.017717  0.000000
size  0.015748  0.023622
drill  0.000000
shape_offset  0.000000  0.000000
orientation  0.00
Shape  Circ
Layer  front
$EndPAD
$PAD "2"
position  0.017717  0.000000
size  0.015748  0.023622
drill  0.000000
shape_offset  0.000000  0.000000
orientation  0.00
Shape  Circ
Layer  front
$EndPAD
$EndMODULE  R4

$MODULE "R5"
reference "R5"
value "330"
footprint "Resistors_SMD:R_0402"
attribut smd
position  6.100000  3.560000
orientation  180.00
layer component
$SHAPE3D
Na "Resistors_SMD/R_0402.wrl"
Sc 1 1 1
Of 0 0 0
Ro 0 0 0
$EndSHAPE3D
$PAD "1"
position -0.017717  0.000000
size  0.015748  0.023622
drill  0.000000
shape_offset  0.000000  0.000000
orientation  0.00
Shape  Circ
Layer  front
$EndPAD
$PAD "2"
position  0.017717  0.000000
size  0.015748  0.023622
drill  0.000000
shape_offset  0.000000  0.000000
orientation  0.00
Shape  Circ
Layer  front
$EndPAD
$EndMODULE  R5

$MODULE "R6"
reference "R6"
value "330"
footprint "Resistors_SMD:R_0402"
attribut smd
position  6.100000  3.620000
orientation  180.00
layer component
$SHAPE3D
Na "Resistors_SMD/R_0402.wrl"
Sc 1 1 1
Of 0 0 0
Ro 0 0 0
$EndSHAPE3D
$PAD "1"
position -0.017717  0.000000
size  0.015748  0.023622
drill  0.000000
shape_offset  0.000000  0.000000
orientation  0.00
Shape  Circ
Layer  front
$EndPAD
$PAD "2"
position  0.017717  0.000000
size  0.015748  0.023622
drill  0.000000
shape_offset  0.000000  0.000000
orientation  0.00
Shape  Circ
Layer  front
$EndPAD
$EndMODULE  R6

$MODULE "C1"
reference "C1"
value "33pF 50V 5% NP0"
footprint "Capacitors_SMD:C_0402"
attribut smd
position  5.530000  4.280000
orientation  180.00
layer component
$SHAPE3D
Na "Capacitors_SMD/C_0402.wrl"
Sc 1 1 1
Of 0 0 0
Ro 0 0 0
$EndSHAPE3D
$PAD "1"
position -0.021654  0.000000
size  0.023622  0.019685
drill  0.000000
shape_offset  0.000000  0.000000
orientation  0.00
Shape  Circ
Layer  front
$EndPAD
$PAD "2"
position  0.021654  0.000000
size  0.023622  0.019685
drill  0.000000
shape_offset  0.000000  0.000000
orientation  0.00
Shape  Circ
Layer  front
$EndPAD
$EndMODULE  C1

$MODULE "C3"
reference "C3"
value "22pF 50V 5% NP0"
footprint "Capacitors_SMD:C_0402"
attribut smd
position  5.390000  4.280000
orientation  0.00
layer component
$SHAPE3D
Na "Capacitors_SMD/C_0402.wrl"
Sc 1 1 1
Of 0 0 0
Ro 0 0 0
$EndSHAPE3D
$PAD "1"
position -0.021654  0.000000
size  0.023622  0.019685
drill  0.000000
shape_offset  0.000000  0.000000
orientation  0.00
Shape  Circ
Layer  front
$EndPAD
$PAD "2"
position  0.021654  0.000000
size  0.023622  0.019685
drill  0.000000
shape_offset  0.000000  0.000000
orientation  0.00
Shape  Circ
Layer  front
$EndPAD
$EndMODULE  C3

$MODULE "C4"
reference "C4"
value "0.1uF 25V 10% X5R"
footprint "Capacitors_SMD:C_0402"
attribut smd
position  5.480000  3.820000
orientation  270.00
layer component
$SHAPE3D
Na "Capacitors_SMD/C_0402.wrl"
Sc 1 1 1
Of 0 0 0
Ro 0 0 0
$EndSHAPE3D
$PAD "1"
position -0.021654  0.000000
size  0.023622  0.019685
drill  0.000000
shape_offset  0.000000  0.000000
orientation  0.00
Shape  Circ
Layer  front
$EndPAD
$PAD "2"
position  0.021654  0.000000
size  0.023622  0.019685
drill  0.000000
shape_offset  0.000000  0.000000
orientation  0.00
Shape  Circ
Layer  front
$EndPAD
$EndMODULE  C4

$MODULE "R1"
reference "R1"
value "2k2"
footprint "Resistors_SMD:R_0402"
attribut smd
position  5.400000  3.820000
orientation  90.00
layer component
$SHAPE3D
Na "Resistors_SMD/R_0402.wrl"
Sc 1 1 1
Of 0 0 0
Ro 0 0 0
$EndSHAPE3D
$PAD "1"
position -0.017717  0.000000
size  0.015748  0.023622
drill  0.000000
shape_offset  0.000000  0.000000
orientation  0.00
Shape  Circ
Layer  front
$EndPAD
$PAD "2"
position  0.017717  0.000000
size  0.015748  0.023622
drill  0.000000
shape_offset  0.000000  0.000000
orientation  0.00
Shape  Circ
Layer  front
$EndPAD
$EndMODULE  R1

$MODULE "R2"
reference "R2"
value "2k2"
footprint "Resistors_SMD:R_0402"
attribut smd
position  5.350000  3.820000
orientation  90.00
layer component
$SHAPE3D
Na "Resistors_SMD/R_0402.wrl"
Sc 1 1 1
Of 0 0 0
Ro 0 0 0
$EndSHAPE3D
$PAD "1"
position -0.017717  0.000000
size  0.015748  0.023622
drill  0.000000
shape_offset  0.000000  0.000000
orientation  0.00
Shape  Circ
Layer  front
$EndPAD
$PAD "2"
position  0.017717  0.000000
size  0.015748  0.023622
drill  0.000000
shape_offset  0.000000  0.000000
orientation  0.00
Shape  Circ
Layer  front
$EndPAD
$EndMODULE  R2

$MODULE "R3"
reference "R3"
value "1k"
footprint "Resistors_SMD:R_0402"
attribut smd
position  5.300000  3.820000
orientation  90.00
layer component
$SHAPE3D
Na "Resistors_SMD/R_0402.wrl"
Sc 1 1 1
Of 0 0 0
Ro 0 0 0
$EndSHAPE3D
$PAD "1"
position -0.017717  0.000000
size  0.015748  0.023622
drill  0.000000
shape_offset  0.000000  0.000000
orientation  0.00
Shape  Circ
Layer  front
$EndPAD
$PAD "2"
position  0.017717  0.000000
size  0.015748  0.023622
drill  0.000000
shape_offset  0.000000  0.000000
orientation  0.00
Shape  Circ
Layer  front
$EndPAD
$EndMODULE  R3

$MODULE "U2"
reference "U2"
value "SC16IS741IPW,112"
footprint "Housings_SSOP:TSSOP-16_4.4x5mm_Pitch0.65mm"
attribut smd
position  5.390000  4.040000
orientation  270.00
layer component
$SHAPE3D
Na "Housings_SSOP/TSSOP-16_4.4x5mm_Pitch0.65mm.wrl"
Sc 1 1 1
Of 0 0 0
Ro 0 0 0
$EndSHAPE3D
$PAD "1"
position -0.116142 -0.089567
size  0.059055  0.017717
drill  0.000000
shape_offset  0.000000  0.000000
orientation  0.00
Shape  Circ
Layer  front
$EndPAD
$PAD "2"
position -0.116142 -0.063976
size  0.059055  0.017717
drill  0.000000
shape_offset  0.000000  0.000000
orientation  0.00
Shape  Circ
Layer  front
$EndPAD
$PAD "3"
position -0.116142 -0.038386
size  0.059055  0.017717
drill  0.000000
shape_offset  0.000000  0.000000
orientation  0.00
Shape  Circ
Layer  front
$EndPAD
$PAD "4"
position -0.116142 -0.012795
size  0.059055  0.017717
drill  0.000000
shape_offset  0.000000  0.000000
orientation  0.00
Shape  Circ
Layer  front
$EndPAD
$PAD "5"
position -0.116142  0.012795
size  0.059055  0.017717
drill  0.000000
shape_offset  0.000000  0.000000
orientation  0.00
Shape  Circ
Layer  front
$EndPAD
$PAD "6"
position -0.116142  0.038386
size  0.059055  0.017717
drill  0.000000
shape_offset  0.000000  0.000000
orientation  0.00
Shape  Circ
Layer  front
$EndPAD
$PAD "7"
position -0.116142  0.063976
size  0.059055  0.017717
drill  0.000000
shape_offset  0.000000  0.000000
orientation  0.00
Shape  Circ
Layer  front
$EndPAD
$PAD "8"
position -0.116142  0.089567
size  0.059055  0.017717
drill  0.000000
shape_offset  0.000000  0.000000
orientation  0.00
Shape  Circ
Layer  front
$EndPAD
$PAD "9"
position  0.116142  0.089567
size  0.059055  0.017717
drill  0.000000
shape_offset  0.000000  0.000000
orientation  0.00
Shape  Circ
Layer  front
$EndPAD
$PAD "10"
position  0.116142  0.063976
size  0.059055  0.017717
drill  0.000000
shape_offset  0.000000  0.000000
orientation  0.00
Shape  Circ
Layer  front
$EndPAD
$PAD "11"
position  0.116142  0.038386
size  0.059055  0.017717
drill  0.000000
shape_offset  0.000000  0.000000
orientation  0.00
Shape  Circ
Layer  front
$EndPAD
$PAD "12"
position  0.116142  0.012795
size  0.059055  0.017717
drill  0.000000
shape_offset  0.000000  0.000000
orientation  0.00
Shape  Circ
Layer  front
$EndPAD
$PAD "13"
position  0.116142 -0.012795
size  0.059055  0.017717
drill  0.000000
shape_offset  0.000000  0.000000
orientation  0.00
Shape  Circ
Layer  front
$EndPAD
$PAD "14"
position  0.116142 -0.038386
size  0.059055  0.017717
drill  0.000000
shape_offset  0.000000  0.000000
orientation  0.00
Shape  Circ
Layer  front
$EndPAD
$PAD "15"
position  0.116142 -0.063976
size  0.059055  0.017717
drill  0.000000
shape_offset  0.000000  0.000000
orientation  0.00
Shape  Circ
Layer  front
$EndPAD
$PAD "16"
position  0.116142 -0.089567
size  0.059055  0.017717
drill  0.000000
shape_offset  0.000000  0.000000
orientation  0.00
Shape  Circ
Layer  front
$EndPAD
$EndMODULE  U2

$MODULE "G***"
reference "G***"
value "OSHW_logo_silkscreen_7mm"
footprint "NF6X_OSHW_logo:OSHW_logo_silkscreen_7mm"
attribut none
position  5.775000  4.450000
orientation  270.00
layer copper
$EndMODULE  G***

$LINE 
start 6.050000 3.400000
end 4.150000 3.400000
width 0.001000
$EndLINE 
$LINE 
start 6.050000 4.650000
end 4.150000 4.650000
width 0.001000
$EndLINE 
$LINE 
start 6.450000 3.625000
end 6.450000 4.425000
width 0.001000
$EndLINE 
$LINE 
start 6.050000 4.650000
end 6.450000 4.425000
width 0.001000
$EndLINE 
$LINE 
start 6.050000 3.400000
end 6.450000 3.625000
width 0.001000
$EndLINE 
$LINE 
start 4.150000 3.400000
end 4.150000 4.650000
width 0.003937
$EndLINE 
$EndDESCRIPTION
