Drill report for /Volumes/Slab/mblair/BlueBolt/BlueBoltPCB/BlueBoltPCB.kicad_pcb
Created on Sunday, January 04, 2015 'AMt' 09:40:23 AM
Drill report for plated through holes :
T1  0.33mm  0.013"  (18 holes)
T2  0.80mm  0.031"  (2 holes)
T3  0.89mm  0.035"  (6 holes)
T4  1.02mm  0.040"  (22 holes)
T5  3.17mm  0.125"  (2 holes)

Total plated holes count 50


Drill report for unplated through holes :

Total unplated holes count 0


