EESchema Schematic File Version 2
LIBS:Connectors
LIBS:Interface
LIBS:LEDs
LIBS:LightBlueBean
LIBS:PMIC
LIBS:power
LIBS:device
LIBS:transistors
LIBS:conn
LIBS:linear
LIBS:regul
LIBS:74xx
LIBS:cmos4000
LIBS:adc-dac
LIBS:memory
LIBS:xilinx
LIBS:special
LIBS:microcontrollers
LIBS:dsp
LIBS:microchip
LIBS:analog_switches
LIBS:motorola
LIBS:texas
LIBS:intel
LIBS:audio
LIBS:interface
LIBS:digital-audio
LIBS:philips
LIBS:display
LIBS:cypress
LIBS:siliconi
LIBS:opto
LIBS:atmel
LIBS:contrib
LIBS:valves
LIBS:BlueBoltPCB-cache
EELAYER 25 0
EELAYER END
$Descr A 11000 8500
encoding utf-8
Sheet 1 1
Title "BlueBolt PCB"
Date "Saturday, January 03, 2015"
Rev "1.0"
Comp "Mark J. Blair NF6X"
Comment1 ""
Comment2 ""
Comment3 "CC BY-SA 4.0"
Comment4 "https://github.com/NF6X/BlueBolt"
$EndDescr
$Comp
L LightBlueBean U3
U 1 1 54A62D2F
P 6500 2000
F 0 "U3" H 6700 2550 60  0000 C CNN
F 1 "LightBlueBean" H 6950 1500 60  0000 C CNN
F 2 "BlueBoltPCB:LightBlueBean-NoBat-NoBreadboard-OnHeader" H 6550 2000 60  0001 C CNN
F 3 "" H 6550 2000 60  0000 C CNN
	1    6500 2000
	1    0    0    -1  
$EndComp
$Comp
L DE9M J2
U 1 1 54A726C7
P 9550 5500
F 0 "J2" H 9550 5900 60  0000 C CNN
F 1 "5747840-2" H 9550 5800 60  0000 C CNN
F 2 "BlueBoltPCB:TE-5747840-2" H 9550 5500 60  0001 C CNN
F 3 "" H 9550 5500 60  0000 C CNN
	1    9550 5500
	1    0    0    -1  
$EndComp
$Comp
L LED-RA-GREEN D3
U 1 1 54A73743
P 8700 1800
F 0 "D3" H 8700 1900 50  0000 C CNN
F 1 "LED-RA-GREEN" H 8700 1600 50  0001 C CNN
F 2 "BlueBoltPCB:Kingbright-WP1503CB-GD" H 8700 1800 60  0001 C CNN
F 3 "" H 8700 1800 60  0000 C CNN
	1    8700 1800
	1    0    0    -1  
$EndComp
$Comp
L LED-RA-RED D1
U 1 1 54A73777
P 8700 1100
F 0 "D1" H 8700 1200 50  0000 C CNN
F 1 "LED-RA-RED" H 8700 900 50  0001 C CNN
F 2 "BlueBoltPCB:Kingbright-WP1503CB-ID" H 8700 1100 60  0001 C CNN
F 3 "" H 8700 1100 60  0000 C CNN
	1    8700 1100
	1    0    0    -1  
$EndComp
$Comp
L LED-RA-YELLOW D2
U 1 1 54A737A9
P 8700 1450
F 0 "D2" H 8700 1550 50  0000 C CNN
F 1 "LED-RA-YELLOW" H 8700 1250 50  0001 C CNN
F 2 "BlueBoltPCB:Kingbright-WP1503CB-YD" H 8700 1450 60  0001 C CNN
F 3 "" H 8700 1450 60  0000 C CNN
	1    8700 1450
	1    0    0    -1  
$EndComp
$Comp
L TE-440055-2 J1
U 1 1 54A754DB
P 1650 1750
F 0 "J1" H 1650 1900 60  0000 C CNN
F 1 "TE-440055-2" H 1650 1600 60  0000 C CNN
F 2 "BlueBoltPCB:TE-440055-2" H 1650 1750 60  0001 C CNN
F 3 "" H 1650 1750 60  0000 C CNN
	1    1650 1750
	1    0    0    -1  
$EndComp
$Comp
L GND #PWR01
U 1 1 54A75912
P 6600 2700
F 0 "#PWR01" H 6600 2450 60  0001 C CNN
F 1 "GND" H 6600 2550 60  0000 C CNN
F 2 "" H 6600 2700 60  0000 C CNN
F 3 "" H 6600 2700 60  0000 C CNN
	1    6600 2700
	1    0    0    -1  
$EndComp
$Comp
L GND #PWR02
U 1 1 54A7592C
P 2050 1900
F 0 "#PWR02" H 2050 1650 60  0001 C CNN
F 1 "GND" H 2050 1750 60  0000 C CNN
F 2 "" H 2050 1900 60  0000 C CNN
F 3 "" H 2050 1900 60  0000 C CNN
	1    2050 1900
	1    0    0    -1  
$EndComp
$Comp
L GND #PWR03
U 1 1 54A75946
P 9550 6200
F 0 "#PWR03" H 9550 5950 60  0001 C CNN
F 1 "GND" H 9550 6050 60  0000 C CNN
F 2 "" H 9550 6200 60  0000 C CNN
F 3 "" H 9550 6200 60  0000 C CNN
	1    9550 6200
	1    0    0    -1  
$EndComp
$Comp
L CRYSTAL X1
U 1 1 54A763CA
P 2150 6050
F 0 "X1" H 2150 6200 60  0000 C CNN
F 1 "3.072MHz" H 2150 5900 60  0000 C CNN
F 2 "Crystals:Crystal_HC49-SD_SMD" H 2150 5800 60  0001 C CNN
F 3 "" H 2150 6050 60  0000 C CNN
	1    2150 6050
	1    0    0    -1  
$EndComp
NoConn ~ 6600 1300
NoConn ~ 6000 2000
Text Notes 1000 1700 0    60   ~ 0
+5VDC\nPower In
$Comp
L GND #PWR04
U 1 1 54A76C2C
P 9100 1950
F 0 "#PWR04" H 9100 1700 60  0001 C CNN
F 1 "GND" H 9100 1800 60  0000 C CNN
F 2 "" H 9100 1950 60  0000 C CNN
F 3 "" H 9100 1950 60  0000 C CNN
	1    9100 1950
	1    0    0    -1  
$EndComp
$Comp
L R R4
U 1 1 54A76C95
P 8050 1100
F 0 "R4" V 8130 1100 40  0000 C CNN
F 1 "220" V 8057 1101 40  0000 C CNN
F 2 "Resistors_SMD:R_0402" V 7980 1100 30  0001 C CNN
F 3 "" H 8050 1100 30  0000 C CNN
	1    8050 1100
	0    1    1    0   
$EndComp
Text GLabel 10100 5400 2    60   Output ~ 0
RxD
Text GLabel 10100 5500 2    60   Input ~ 0
TxD
NoConn ~ 9950 5600
NoConn ~ 9950 5300
NoConn ~ 9150 5350
NoConn ~ 9150 5450
NoConn ~ 9150 5550
NoConn ~ 9150 5650
Text Notes 9150 5000 0    60   ~ 0
RS-232 Connection\nto Thunderbolt (DE9M)
Text Notes 8600 950  2    60   ~ 0
Status LEDs
$Comp
L +3V3 #PWR05
U 1 1 54A77839
P 6400 1100
F 0 "#PWR05" H 6400 950 60  0001 C CNN
F 1 "+3V3" H 6400 1240 60  0000 C CNN
F 2 "" H 6400 1100 60  0000 C CNN
F 3 "" H 6400 1100 60  0000 C CNN
	1    6400 1100
	1    0    0    -1  
$EndComp
Text GLabel 7150 2200 2    60   Output ~ 0
SCL
Text GLabel 7150 2300 2    60   BiDi ~ 0
SDA
Text Notes 1550 1850 2    60   ~ 0
+\n-
Text Notes 5950 800  0    60   ~ 0
LightBlue Bean:\nArduino-Compatible CPU\nand Bluetooth Low-Energy Radio
$Comp
L MCP1824ST-xx02E/DB U1
U 1 1 54A78F4E
P 3200 1800
F 0 "U1" H 3200 2150 60  0000 C CNN
F 1 "MCP1824ST-3302E/DB" H 3200 2050 60  0000 C CNN
F 2 "SMD_Packages:SOT-223" H 3200 1900 60  0001 C CNN
F 3 "" H 3200 1900 60  0000 C CNN
	1    3200 1800
	1    0    0    -1  
$EndComp
$Comp
L GND #PWR06
U 1 1 54A78FD9
P 3200 2400
F 0 "#PWR06" H 3200 2150 60  0001 C CNN
F 1 "GND" H 3200 2250 60  0000 C CNN
F 2 "" H 3200 2400 60  0000 C CNN
F 3 "" H 3200 2400 60  0000 C CNN
	1    3200 2400
	1    0    0    -1  
$EndComp
Connection ~ 3200 2350
Wire Wire Line
	3150 2200 3150 2350
Wire Wire Line
	3200 2350 3200 2400
Wire Wire Line
	2400 2350 4000 2350
Wire Wire Line
	3250 2350 3250 2200
Wire Wire Line
	7000 2300 7150 2300
Wire Wire Line
	7000 2200 7150 2200
Wire Wire Line
	6400 1100 6400 1300
Wire Wire Line
	9950 5400 10100 5400
Wire Wire Line
	9950 5500 10100 5500
Connection ~ 9600 6200
Wire Wire Line
	10000 5700 10000 6200
Wire Wire Line
	9950 5700 10000 5700
Wire Wire Line
	8300 1800 8500 1800
Wire Wire Line
	8300 1450 8500 1450
Wire Wire Line
	8300 1100 8500 1100
Connection ~ 6600 2650
Wire Wire Line
	6400 2650 6600 2650
Wire Wire Line
	6400 2600 6400 2650
Wire Wire Line
	6600 2700 6600 2600
Wire Wire Line
	2050 1800 2050 1900
Wire Wire Line
	1900 1800 2050 1800
Connection ~ 9550 6200
Wire Wire Line
	9600 6200 9600 6100
Wire Wire Line
	10000 6200 9500 6200
Wire Wire Line
	9500 6200 9500 6100
$Comp
L +3V3 #PWR07
U 1 1 54A792E2
P 4000 1550
F 0 "#PWR07" H 4000 1400 60  0001 C CNN
F 1 "+3V3" H 4000 1690 60  0000 C CNN
F 2 "" H 4000 1550 60  0000 C CNN
F 3 "" H 4000 1550 60  0000 C CNN
	1    4000 1550
	1    0    0    -1  
$EndComp
Wire Wire Line
	1900 1700 2750 1700
Wire Wire Line
	3650 1700 4000 1700
Wire Wire Line
	4000 1550 4000 1800
$Comp
L C C2
U 1 1 54A7957D
P 2400 2000
F 0 "C2" H 2400 2100 40  0000 L CNN
F 1 "4.7uF 6.3V 10% X5R" H 2406 1915 40  0000 L CNN
F 2 "Capacitors_SMD:C_0805_HandSoldering" H 2438 1850 30  0001 C CNN
F 3 "" H 2400 2000 60  0000 C CNN
	1    2400 2000
	1    0    0    -1  
$EndComp
$Comp
L C C5
U 1 1 54A795F6
P 4000 2000
F 0 "C5" H 4000 2100 40  0000 L CNN
F 1 "4.7uF 6.3V 10% X5R" H 4006 1915 40  0000 L CNN
F 2 "Capacitors_SMD:C_0805_HandSoldering" H 4038 1850 30  0001 C CNN
F 3 "" H 4000 2000 60  0000 C CNN
	1    4000 2000
	1    0    0    -1  
$EndComp
Connection ~ 2400 1700
Wire Wire Line
	2400 2200 2400 2350
Connection ~ 3150 2350
Wire Wire Line
	4000 2350 4000 2200
Connection ~ 3250 2350
Connection ~ 4000 1700
Text Notes 3750 1300 2    60   ~ 0
Linear Regulator (3.3V)
Wire Wire Line
	7000 1800 7800 1800
Wire Wire Line
	7000 1700 7700 1700
Wire Wire Line
	7700 1700 7700 1450
Wire Wire Line
	7700 1450 7800 1450
Wire Wire Line
	7000 1600 7600 1600
Wire Wire Line
	7600 1600 7600 1100
Wire Wire Line
	7600 1100 7800 1100
Wire Wire Line
	8900 1100 9100 1100
Wire Wire Line
	9100 1100 9100 1950
Wire Wire Line
	8900 1800 9100 1800
Connection ~ 9100 1800
Wire Wire Line
	8900 1450 9100 1450
Connection ~ 9100 1450
Wire Wire Line
	2400 1800 2400 1700
Text Label 2400 1700 0    60   ~ 0
+5V
$Comp
L ICL3221 U4
U 1 1 54A831A7
P 7050 5100
F 0 "U4" H 7050 5400 60  0000 C CNN
F 1 "ICL3221EIVZ" H 7050 5300 60  0000 C CNN
F 2 "Housings_SSOP:TSSOP-16_4.4x5mm_Pitch0.65mm" H 7050 5100 60  0001 C CNN
F 3 "" H 7050 5100 60  0000 C CNN
	1    7050 5100
	1    0    0    -1  
$EndComp
$Comp
L C C6
U 1 1 54A8332F
P 5600 4300
F 0 "C6" H 5600 4400 40  0000 L CNN
F 1 "0.1uF 25V 10% X5R" H 5606 4215 40  0000 L CNN
F 2 "Capacitors_SMD:C_0402" H 5638 4150 30  0001 C CNN
F 3 "" H 5600 4300 60  0000 C CNN
	1    5600 4300
	1    0    0    -1  
$EndComp
$Comp
L GND #PWR08
U 1 1 54A83533
P 8700 4650
F 0 "#PWR08" H 8700 4400 60  0001 C CNN
F 1 "GND" H 8700 4500 60  0000 C CNN
F 2 "" H 8700 4650 60  0000 C CNN
F 3 "" H 8700 4650 60  0000 C CNN
	1    8700 4650
	1    0    0    -1  
$EndComp
$Comp
L GND #PWR09
U 1 1 54A83830
P 7050 6500
F 0 "#PWR09" H 7050 6250 60  0001 C CNN
F 1 "GND" H 7050 6350 60  0000 C CNN
F 2 "" H 7050 6500 60  0000 C CNN
F 3 "" H 7050 6500 60  0000 C CNN
	1    7050 6500
	1    0    0    -1  
$EndComp
$Comp
L C C8
U 1 1 54A838A7
P 8200 3600
F 0 "C8" V 8050 3550 40  0000 L CNN
F 1 "0.1uF 25V 10% X5R" V 8350 3350 40  0000 L CNN
F 2 "Capacitors_SMD:C_0402" H 8238 3450 30  0001 C CNN
F 3 "" H 8200 3600 60  0000 C CNN
	1    8200 3600
	0    1    1    0   
$EndComp
Wire Wire Line
	7050 3450 7050 3750
Wire Wire Line
	7050 3600 8000 3600
Wire Wire Line
	7850 4100 8000 4100
Wire Wire Line
	7850 4600 8000 4600
Wire Wire Line
	8400 3600 8700 3600
Wire Wire Line
	8700 3600 8700 4650
Wire Wire Line
	8400 4600 8700 4600
Connection ~ 8700 4600
Wire Wire Line
	8400 4100 8700 4100
Connection ~ 8700 4100
Wire Wire Line
	6250 4100 5600 4100
Wire Wire Line
	6250 4500 5600 4500
Wire Wire Line
	6250 5000 5600 5000
Wire Wire Line
	7050 6400 7050 6500
$Comp
L +3V3 #PWR010
U 1 1 54A83C33
P 7050 3450
F 0 "#PWR010" H 7050 3300 60  0001 C CNN
F 1 "+3V3" H 7050 3590 60  0000 C CNN
F 2 "" H 7050 3450 60  0000 C CNN
F 3 "" H 7050 3450 60  0000 C CNN
	1    7050 3450
	1    0    0    -1  
$EndComp
Connection ~ 7050 3600
Wire Wire Line
	6250 4600 5600 4600
$Comp
L GND #PWR011
U 1 1 54A83D21
P 5950 5600
F 0 "#PWR011" H 5950 5350 60  0001 C CNN
F 1 "GND" H 5950 5450 60  0000 C CNN
F 2 "" H 5950 5600 60  0000 C CNN
F 3 "" H 5950 5600 60  0000 C CNN
	1    5950 5600
	1    0    0    -1  
$EndComp
Wire Wire Line
	6250 5600 5950 5600
$Comp
L +3V3 #PWR012
U 1 1 54A83DA8
P 5700 5650
F 0 "#PWR012" H 5700 5500 60  0001 C CNN
F 1 "+3V3" H 5700 5790 60  0000 C CNN
F 2 "" H 5700 5650 60  0000 C CNN
F 3 "" H 5700 5650 60  0000 C CNN
	1    5700 5650
	1    0    0    -1  
$EndComp
Wire Wire Line
	6250 5900 5700 5900
Wire Wire Line
	5700 5900 5700 5650
Wire Wire Line
	6250 5800 6150 5800
Wire Wire Line
	6150 5800 6150 5900
Connection ~ 6150 5900
NoConn ~ 7850 5800
Text GLabel 8050 5400 2    60   Input ~ 0
RxD
Wire Wire Line
	8050 5400 7850 5400
Text GLabel 8050 5200 2    60   Output ~ 0
TxD
Wire Wire Line
	8050 5200 7850 5200
$Comp
L C C7
U 1 1 54A844AE
P 5600 4800
F 0 "C7" H 5600 4900 40  0000 L CNN
F 1 "0.1uF 25V 10% X5R" H 5606 4715 40  0000 L CNN
F 2 "Capacitors_SMD:C_0402" H 5638 4650 30  0001 C CNN
F 3 "" H 5600 4800 60  0000 C CNN
	1    5600 4800
	1    0    0    -1  
$EndComp
$Comp
L C C9
U 1 1 54A84502
P 8200 4100
F 0 "C9" V 8050 4050 40  0000 L CNN
F 1 "0.1uF 25V 10% X5R" V 8350 3850 40  0000 L CNN
F 2 "Capacitors_SMD:C_0402" H 8238 3950 30  0001 C CNN
F 3 "" H 8200 4100 60  0000 C CNN
	1    8200 4100
	0    1    1    0   
$EndComp
$Comp
L C C10
U 1 1 54A8453E
P 8200 4600
F 0 "C10" V 8050 4550 40  0000 L CNN
F 1 "0.1uF 25V 10% X5R" V 8350 4350 40  0000 L CNN
F 2 "Capacitors_SMD:C_0402" H 8238 4450 30  0001 C CNN
F 3 "" H 8200 4600 60  0000 C CNN
	1    8200 4600
	0    1    1    0   
$EndComp
$Comp
L R R5
U 1 1 54A846F0
P 8050 1450
F 0 "R5" V 8130 1450 40  0000 C CNN
F 1 "220" V 8057 1451 40  0000 C CNN
F 2 "Resistors_SMD:R_0402" V 7980 1450 30  0001 C CNN
F 3 "" H 8050 1450 30  0000 C CNN
	1    8050 1450
	0    1    1    0   
$EndComp
$Comp
L R R6
U 1 1 54A8472D
P 8050 1800
F 0 "R6" V 8130 1800 40  0000 C CNN
F 1 "220" V 8057 1801 40  0000 C CNN
F 2 "Resistors_SMD:R_0402" V 7980 1800 30  0001 C CNN
F 3 "" H 8050 1800 30  0000 C CNN
	1    8050 1800
	0    1    1    0   
$EndComp
Text Notes 7500 3150 2    60   ~ 0
RS-232 Transceiver
$Comp
L SC16IS741 U2
U 1 1 54A84A8B
P 3350 5000
F 0 "U2" H 3350 4850 60  0000 C CNN
F 1 "SC16IS741IPW,112" H 3350 4700 60  0000 C CNN
F 2 "Housings_SSOP:TSSOP-16_4.4x5mm_Pitch0.65mm" H 3350 5000 60  0001 C CNN
F 3 "" H 3350 5000 60  0000 C CNN
	1    3350 5000
	1    0    0    -1  
$EndComp
Wire Wire Line
	4050 5200 6250 5200
Wire Wire Line
	4050 5400 6250 5400
$Comp
L GND #PWR013
U 1 1 54A84BE5
P 3350 6250
F 0 "#PWR013" H 3350 6000 60  0001 C CNN
F 1 "GND" H 3350 6100 60  0000 C CNN
F 2 "" H 3350 6250 60  0000 C CNN
F 3 "" H 3350 6250 60  0000 C CNN
	1    3350 6250
	1    0    0    -1  
$EndComp
$Comp
L +3V3 #PWR014
U 1 1 54A84C18
P 3350 3950
F 0 "#PWR014" H 3350 3800 60  0001 C CNN
F 1 "+3V3" H 3350 4090 60  0000 C CNN
F 2 "" H 3350 3950 60  0000 C CNN
F 3 "" H 3350 3950 60  0000 C CNN
	1    3350 3950
	1    0    0    -1  
$EndComp
$Comp
L C C4
U 1 1 54A84C4B
P 3850 4000
F 0 "C4" V 3700 3950 40  0000 L CNN
F 1 "0.1uF 25V 10% X5R" V 4000 3750 40  0000 L CNN
F 2 "Capacitors_SMD:C_0402" H 3888 3850 30  0001 C CNN
F 3 "" H 3850 4000 60  0000 C CNN
	1    3850 4000
	0    1    1    0   
$EndComp
$Comp
L GND #PWR015
U 1 1 54A84C9E
P 4300 4200
F 0 "#PWR015" H 4300 3950 60  0001 C CNN
F 1 "GND" H 4300 4050 60  0000 C CNN
F 2 "" H 4300 4200 60  0000 C CNN
F 3 "" H 4300 4200 60  0000 C CNN
	1    4300 4200
	1    0    0    -1  
$EndComp
Wire Wire Line
	3350 3950 3350 4050
Wire Wire Line
	1900 4000 3650 4000
Connection ~ 3350 4000
Wire Wire Line
	4050 4000 4300 4000
Wire Wire Line
	4300 4000 4300 4200
Wire Wire Line
	2650 4400 2650 4000
Wire Wire Line
	2450 6050 2550 6050
Wire Wire Line
	2550 5800 2550 6200
Wire Wire Line
	2550 5800 2650 5800
Wire Wire Line
	2650 5600 1750 5600
Wire Wire Line
	1750 5600 1750 6200
Wire Wire Line
	1750 6050 1850 6050
Wire Wire Line
	3350 6150 3350 6250
NoConn ~ 4050 4800
$Comp
L GND #PWR016
U 1 1 54A8535A
P 4250 5000
F 0 "#PWR016" H 4250 4750 60  0001 C CNN
F 1 "GND" H 4250 4850 60  0000 C CNN
F 2 "" H 4250 5000 60  0000 C CNN
F 3 "" H 4250 5000 60  0000 C CNN
	1    4250 5000
	1    0    0    -1  
$EndComp
Wire Wire Line
	4050 5000 4250 5000
NoConn ~ 2650 5000
$Comp
L GND #PWR017
U 1 1 54A8543F
P 2350 5100
F 0 "#PWR017" H 2350 4850 60  0001 C CNN
F 1 "GND" H 2350 4950 60  0000 C CNN
F 2 "" H 2350 5100 60  0000 C CNN
F 3 "" H 2350 5100 60  0000 C CNN
	1    2350 5100
	1    0    0    -1  
$EndComp
Wire Wire Line
	2650 5100 2350 5100
Wire Wire Line
	2650 5200 2550 5200
Wire Wire Line
	2550 5200 2550 5100
Connection ~ 2550 5100
$Comp
L R R1
U 1 1 54A8567C
P 1900 4350
F 0 "R1" V 1980 4350 40  0000 C CNN
F 1 "2k2" V 1907 4351 40  0000 C CNN
F 2 "Resistors_SMD:R_0402" V 1830 4350 30  0001 C CNN
F 3 "" H 1900 4350 30  0000 C CNN
	1    1900 4350
	-1   0    0    1   
$EndComp
$Comp
L R R2
U 1 1 54A857D9
P 2100 4350
F 0 "R2" V 2180 4350 40  0000 C CNN
F 1 "2k2" V 2107 4351 40  0000 C CNN
F 2 "Resistors_SMD:R_0402" V 2030 4350 30  0001 C CNN
F 3 "" H 2100 4350 30  0000 C CNN
	1    2100 4350
	-1   0    0    1   
$EndComp
$Comp
L R R3
U 1 1 54A8581A
P 2300 4350
F 0 "R3" V 2380 4350 40  0000 C CNN
F 1 "1k" V 2307 4351 40  0000 C CNN
F 2 "Resistors_SMD:R_0402" V 2230 4350 30  0001 C CNN
F 3 "" H 2300 4350 30  0000 C CNN
	1    2300 4350
	-1   0    0    1   
$EndComp
Wire Wire Line
	1750 4700 2650 4700
Wire Wire Line
	2300 4700 2300 4600
Wire Wire Line
	1750 4800 2650 4800
Wire Wire Line
	2100 4800 2100 4600
Wire Wire Line
	1750 4900 2650 4900
Wire Wire Line
	1900 4900 1900 4600
Wire Wire Line
	1900 4100 1900 4000
Connection ~ 2650 4000
Wire Wire Line
	2100 4100 2100 4000
Connection ~ 2100 4000
Wire Wire Line
	2300 4100 2300 4000
Connection ~ 2300 4000
Text GLabel 1750 4900 0    60   Input ~ 0
SCL
Text GLabel 1750 4800 0    60   BiDi ~ 0
SDA
Text GLabel 1750 4700 0    60   Output ~ 0
~IRQ
Text GLabel 1750 5400 0    60   Input ~ 0
~RESET
Wire Wire Line
	1750 5400 2650 5400
Connection ~ 1900 4900
Connection ~ 2100 4800
Connection ~ 2300 4700
Text Notes 3150 3650 0    60   ~ 0
I2C UART
$Comp
L C C3
U 1 1 54A86148
P 2550 6400
F 0 "C3" H 2550 6500 40  0000 L CNN
F 1 "22pF 50V 5% NP0" H 2556 6315 40  0000 L CNN
F 2 "Capacitors_SMD:C_0402" H 2588 6250 30  0001 C CNN
F 3 "" H 2550 6400 60  0000 C CNN
	1    2550 6400
	1    0    0    -1  
$EndComp
$Comp
L C C1
U 1 1 54A861E2
P 1750 6400
F 0 "C1" H 1750 6500 40  0000 L CNN
F 1 "33pF 50V 5% NP0" H 1756 6315 40  0000 L CNN
F 2 "Capacitors_SMD:C_0402" H 1788 6250 30  0001 C CNN
F 3 "" H 1750 6400 60  0000 C CNN
	1    1750 6400
	1    0    0    -1  
$EndComp
$Comp
L GND #PWR018
U 1 1 54A864A4
P 2150 6700
F 0 "#PWR018" H 2150 6450 60  0001 C CNN
F 1 "GND" H 2150 6550 60  0000 C CNN
F 2 "" H 2150 6700 60  0000 C CNN
F 3 "" H 2150 6700 60  0000 C CNN
	1    2150 6700
	1    0    0    -1  
$EndComp
Connection ~ 1750 6050
Connection ~ 2550 6050
Wire Wire Line
	1750 6600 1750 6650
Wire Wire Line
	1750 6650 2550 6650
Wire Wire Line
	2550 6650 2550 6600
Wire Wire Line
	2150 6700 2150 6650
Connection ~ 2150 6650
Text GLabel 7150 2000 2    60   Output ~ 0
~RESET
Text GLabel 7150 1900 2    60   Input ~ 0
~IRQ
Wire Wire Line
	7150 2000 7000 2000
Wire Wire Line
	7150 1900 7000 1900
NoConn ~ 7000 2100
$EndSCHEMATC
