Reference, Quantity, Value, Footprint, Datasheet
C1 ,1,33pF 50V 5% NP0,Capacitors_SMD:C_0402,
C2 C5 ,2,4.7uF 6.3V 10% X5R,Capacitors_SMD:C_0805_HandSoldering,
C3 ,1,22pF 50V 5% NP0,Capacitors_SMD:C_0402,
C10 C4 C6 C7 C8 C9 ,6,0.1uF 25V 10% X5R,Capacitors_SMD:C_0402,
D1 ,1,LED-RA-RED,BlueBoltPCB:Kingbright-WP1503CB-ID,
D2 ,1,LED-RA-YELLOW,BlueBoltPCB:Kingbright-WP1503CB-YD,
D3 ,1,LED-RA-GREEN,BlueBoltPCB:Kingbright-WP1503CB-GD,
J1 ,1,TE-440055-2,BlueBoltPCB:TE-440055-2,
J2 ,1,5747840-2,BlueBoltPCB:TE-5747840-2,
R1 R2 ,2,2k2,Resistors_SMD:R_0402,
R3 ,1,1k,Resistors_SMD:R_0402,
R4 R5 R6 ,3,220,Resistors_SMD:R_0402,
U1 ,1,MCP1824ST-3302E/DB,SMD_Packages:SOT-223,
U2 ,1,SC16IS741IPW,112,Housings_SSOP:TSSOP-16_4.4x5mm_Pitch0.65mm,
U3 ,1,LightBlueBean,BlueBoltPCB:LightBlueBean-NoBat-NoBreadboard-OnHeader,
U4 ,1,ICL3221EIVZ,Housings_SSOP:TSSOP-16_4.4x5mm_Pitch0.65mm,
X1 ,1,3.072MHz,Crystals:Crystal_HC49-SD_SMD,